<?xml version="1.0" encoding="UTF-8"?>
<svg width="28px" height="28px" viewBox="0 0 28 28" version="1.1" xmlns="http://www.w3.org/2000/svg" xmlns:xlink="http://www.w3.org/1999/xlink">
    <!-- Generator: Sketch 47.1 (45422) - http://www.bohemiancoding.com/sketch -->
    <title>Group 6</title>
    <desc>Created with Sketch.</desc>
    <defs></defs>
    <g id="BMS" stroke="none" stroke-width="1" fill="none" fill-rule="evenodd">
        <g id="Ordering" transform="translate(-816.000000, -656.000000)" stroke="#2FFAD3">
            <g id="Group-6" transform="translate(818.000000, 658.000000)">
                <g id="icons/icon-arrow-left-circle" stroke-width="4">
                    <g id="icons/icon-arrow-right-circle" transform="translate(12.000000, 12.000000) scale(-1, 1) translate(-12.000000, -12.000000) ">
                        <circle id="Oval" cx="12" cy="12" r="12"></circle>
                    </g>
                </g>
                <path d="M12,10.8115348 L8.4346044,7.2461392 C8.1064188,6.9179536 7.5743248,6.9179536 7.2461392,7.2461392 C6.9179536,7.5743248 6.9179536,8.1064188 7.2461392,8.4346044 L10.8115348,12 L7.2461392,15.5653956 C6.9179536,15.8935812 6.9179536,16.4256752 7.2461392,16.7538608 C7.5743248,17.0820464 8.1064188,17.0820464 8.4346044,16.7538608 L12,13.1884652 L15.5653956,16.7538608 C15.8935812,17.0820464 16.4256752,17.0820464 16.7538608,16.7538608 C17.0820464,16.4256752 17.0820464,15.8935812 16.7538608,15.5653956 L13.1884652,12 L16.7538608,8.4346044 C17.0820464,8.1064188 17.0820464,7.5743248 16.7538608,7.2461392 C16.4256752,6.9179536 15.8935812,6.9179536 15.5653956,7.2461392 L12,10.8115348 Z" id="Combined-Shape" stroke-width="2.4" stroke-linecap="round" stroke-linejoin="round"></path>
            </g>
        </g>
    </g>
</svg>