<?xml version="1.0" encoding="UTF-8"?>
<svg width="18px" height="25px" viewBox="0 0 18 25" version="1.1" xmlns="http://www.w3.org/2000/svg" xmlns:xlink="http://www.w3.org/1999/xlink">
    <!-- Generator: Sketch 46.2 (44496) - http://www.bohemiancoding.com/sketch -->
    <title>Combined Shape</title>
    <desc>Created with Sketch.</desc>
    <defs></defs>
    <g id="BMS" stroke="none" stroke-width="1" fill="none" fill-rule="evenodd" stroke-linecap="round" stroke-linejoin="round">
        <g id="Karaoke" transform="translate(-383.000000, -632.000000)" stroke="#2FFAD3" stroke-width="0.72" fill="#2FFAD3">
            <g id="Group-6" transform="translate(177.000000, 608.000000)">
                <g id="Group-4" transform="translate(186.000000, 9.000000)">
                    <path d="M23.9286389,16.6149304 L33.2954747,25.9817662 C33.8578297,26.5441212 33.8578297,27.4558788 33.2954747,28.0182338 L23.0437532,38.2699553 L23.0437532,38.2699553 C22.4813983,38.8323102 21.5696407,38.8323102 21.0072857,38.2699553 C20.721293,37.9839626 20.5687578,37.5908809 20.586982,37.186837 L21.4718676,17.5682796 C21.5077024,16.7737973 22.1808073,16.1587919 22.9752896,16.1946267 C23.3343941,16.2108239 23.6744555,16.360747 23.9286389,16.6149304 Z M34,20 L37,20 L37,36 L34,36 L34,20 Z" id="Combined-Shape"></path>
                </g>
            </g>
        </g>
    </g>
</svg>