<?xml version="1.0" encoding="UTF-8"?>
<svg width="20px" height="31px" viewBox="0 0 20 31" version="1.1" xmlns="http://www.w3.org/2000/svg" xmlns:xlink="http://www.w3.org/1999/xlink">
    <!-- Generator: Sketch 47.1 (45422) - http://www.bohemiancoding.com/sketch -->
    <title>Group 8</title>
    <desc>Created with Sketch.</desc>
    <defs></defs>
    <g id="BMS" stroke="none" stroke-width="1" fill="none" fill-rule="evenodd">
        <g id="Karaoke" transform="translate(-288.000000, -630.000000)" fill="#2FFAD3">
            <g id="Group-8" transform="translate(288.000000, 630.000000)">
                <rect id="Rectangle-6" x="0" y="0" width="8.57142857" height="31" rx="2.8"></rect>
                <rect id="Rectangle-6-Copy" x="11.4285714" y="0" width="8.57142857" height="31" rx="2.8"></rect>
            </g>
        </g>
    </g>
</svg>